{
  "_host":"localhost",
  "_port":"3500",
  "_portdb":"27017",
  "_hostdb":"127.0.0.1",
  "_dbname":"test",
  "_dirname":"/home/deus/WebstormProjects/nodeCompilied/",
  "_dirnameControllers": "./protected/controllers/",
  "_expansion":"css|js|ttf|woff|otf|eot|svg|js.map",
  "_dirnameLib":"./protected/lib/",
  "_dirUI":"/home/deus/WebstormProjects/nodeCompilied/ui/components",
  "_dirClient":"/home/deus/WebstormProjects/nodeCompilied/client/",
  "_dirServer":"/home/deus/WebstormProjects/nodeCompilied/protected/",
  "_dirTpl":"/home/deus/WebstormProjects/nodeCompilied/views/",
  "_dirModules":"/home/deus/WebstormProjects/nodeCompilied/protected/modules/",
  "_googleAuth_redirect_uri":"http://localhost:3500/users/auth/",
  "_googleAuth_client_id":"689372197173-sjk5rve3a432hgksipfg6rcs0uck8nk7.apps.googleusercontent.com",
  "_googleAuth_secret_id":"h1TsvfigPdVoV12cx-S4UpJa"
}